{"count":182,"next":"https://api.questoes.xtri.online/api/exams/2025/questions/?page=3","previous":"https://api.questoes.xtri.online/api/exams/2025/questions/","results":[{"id":17613,"title":"Questão 46 - ENEM 2025","index":46,"year":2025,"slug":"46","discipline":"ciencias-humanas","language":null,"skill":null,"image":null,"correctAlternative":"E","param_b":null},{"id":17614,"title":"Questão 47 - ENEM 2025","index":47,"year":2025,"slug":"47","discipline":"ciencias-humanas","language":null,"skill":null,"image":"https://api.questoes.xtri.online/media/enem/2025/questions/47/question-47.png","correctAlternative":"D","param_b":null},{"id":17615,"title":"Questão 48 - ENEM 2025","index":48,"year":2025,"slug":"48","discipline":"ciencias-humanas","language":null,"skill":null,"image":null,"correctAlternative":"E","param_b":null},{"id":17616,"title":"Questão 49 - ENEM 2025","index":49,"year":2025,"slug":"49","discipline":"ciencias-humanas","language":null,"skill":null,"image":"https://api.questoes.xtri.online/media/enem/2025/questions/49/question-49.png","correctAlternative":"C","param_b":null},{"id":17619,"title":"Questão 50 - ENEM 2025","index":50,"year":2025,"slug":"50","discipline":"ciencias-humanas","language":null,"skill":null,"image":null,"correctAlternative":"A","param_b":null},{"id":17620,"title":"Questão 51 - ENEM 2025","index":51,"year":2025,"slug":"51","discipline":"ciencias-humanas","language":null,"skill":null,"image":null,"correctAlternative":"D","param_b":null},{"id":17621,"title":"Questão 52 - ENEM 2025","index":52,"year":2025,"slug":"52","discipline":"ciencias-humanas","language":null,"skill":null,"image":null,"correctAlternative":"C","param_b":null},{"id":17622,"title":"Questão 53 - ENEM 2025","index":53,"year":2025,"slug":"53","discipline":"ciencias-humanas","language":null,"skill":null,"image":null,"correctAlternative":"E","param_b":null},{"id":17623,"title":"Questão 54 - ENEM 2025","index":54,"year":2025,"slug":"54","discipline":"ciencias-humanas","language":null,"skill":null,"image":null,"correctAlternative":"E","param_b":null},{"id":17624,"title":"Questão 55 - ENEM 2025","index":55,"year":2025,"slug":"55","discipline":"ciencias-humanas","language":null,"skill":null,"image":null,"correctAlternative":"D","param_b":null},{"id":17625,"title":"Questão 56 - ENEM 2025","index":56,"year":2025,"slug":"56","discipline":"ciencias-humanas","language":null,"skill":null,"image":null,"correctAlternative":"C","param_b":null},{"id":17626,"title":"Questão 57 - ENEM 2025","index":57,"year":2025,"slug":"57","discipline":"ciencias-humanas","language":null,"skill":null,"image":null,"correctAlternative":"A","param_b":null},{"id":17627,"title":"Questão 58 - ENEM 2025","index":58,"year":2025,"slug":"58","discipline":"ciencias-humanas","language":null,"skill":null,"image":null,"correctAlternative":"D","param_b":null},{"id":17628,"title":"Questão 59 - ENEM 2025","index":59,"year":2025,"slug":"59","discipline":"ciencias-humanas","language":null,"skill":null,"image":null,"correctAlternative":"B","param_b":null},{"id":17630,"title":"Questão 60 - ENEM 2025","index":60,"year":2025,"slug":"60","discipline":"ciencias-humanas","language":null,"skill":null,"image":null,"correctAlternative":"D","param_b":null},{"id":17631,"title":"Questão 61 - ENEM 2025","index":61,"year":2025,"slug":"61","discipline":"ciencias-humanas","language":null,"skill":null,"image":null,"correctAlternative":"E","param_b":null},{"id":17632,"title":"Questão 62 - ENEM 2025","index":62,"year":2025,"slug":"62","discipline":"ciencias-humanas","language":null,"skill":null,"image":null,"correctAlternative":"B","param_b":null},{"id":17633,"title":"Questão 63 - ENEM 2025","index":63,"year":2025,"slug":"63","discipline":"ciencias-humanas","language":null,"skill":null,"image":"https://api.questoes.xtri.online/media/enem/2025/questions/63/question-63.png","correctAlternative":"B","param_b":null},{"id":17634,"title":"Questão 64 - ENEM 2025","index":64,"year":2025,"slug":"64","discipline":"ciencias-humanas","language":null,"skill":null,"image":null,"correctAlternative":"A","param_b":null},{"id":17635,"title":"Questão 65 - ENEM 2025","index":65,"year":2025,"slug":"65","discipline":"ciencias-humanas","language":null,"skill":null,"image":null,"correctAlternative":"C","param_b":null},{"id":17636,"title":"Questão 66 - ENEM 2025","index":66,"year":2025,"slug":"66","discipline":"ciencias-humanas","language":null,"skill":null,"image":null,"correctAlternative":"D","param_b":null},{"id":17637,"title":"Questão 67 - ENEM 2025","index":67,"year":2025,"slug":"67","discipline":"ciencias-humanas","language":null,"skill":null,"image":null,"correctAlternative":"D","param_b":null},{"id":17638,"title":"Questão 68 - ENEM 2025","index":68,"year":2025,"slug":"68","discipline":"ciencias-humanas","language":null,"skill":null,"image":"https://api.questoes.xtri.online/media/enem/2025/questions/68/question-68.png","correctAlternative":"E","param_b":null},{"id":17639,"title":"Questão 69 - ENEM 2025","index":69,"year":2025,"slug":"69","discipline":"ciencias-humanas","language":null,"skill":null,"image":null,"correctAlternative":"C","param_b":null},{"id":17641,"title":"Questão 70 - ENEM 2025","index":70,"year":2025,"slug":"70","discipline":"ciencias-humanas","language":null,"skill":null,"image":null,"correctAlternative":"B","param_b":null},{"id":17642,"title":"Questão 71 - ENEM 2025","index":71,"year":2025,"slug":"71","discipline":"ciencias-humanas","language":null,"skill":null,"image":null,"correctAlternative":"A","param_b":null},{"id":17643,"title":"Questão 72 - ENEM 2025","index":72,"year":2025,"slug":"72","discipline":"ciencias-humanas","language":null,"skill":null,"image":null,"correctAlternative":"D","param_b":null},{"id":17644,"title":"Questão 73 - ENEM 2025","index":73,"year":2025,"slug":"73","discipline":"ciencias-humanas","language":null,"skill":null,"image":null,"correctAlternative":"A","param_b":null},{"id":17645,"title":"Questão 74 - ENEM 2025","index":74,"year":2025,"slug":"74","discipline":"ciencias-humanas","language":null,"skill":null,"image":null,"correctAlternative":"B","param_b":null},{"id":17646,"title":"Questão 75 - ENEM 2025","index":75,"year":2025,"slug":"75","discipline":"ciencias-humanas","language":null,"skill":null,"image":null,"correctAlternative":"B","param_b":null},{"id":17647,"title":"Questão 76 - ENEM 2025","index":76,"year":2025,"slug":"76","discipline":"ciencias-humanas","language":null,"skill":null,"image":null,"correctAlternative":"C","param_b":null},{"id":17648,"title":"Questão 77 - ENEM 2025","index":77,"year":2025,"slug":"77","discipline":"ciencias-humanas","language":null,"skill":null,"image":"https://api.questoes.xtri.online/media/enem/2025/questions/77/question-77.png","correctAlternative":"A","param_b":null},{"id":17649,"title":"Questão 78 - ENEM 2025","index":78,"year":2025,"slug":"78","discipline":"ciencias-humanas","language":null,"skill":null,"image":null,"correctAlternative":"B","param_b":null},{"id":17650,"title":"Questão 79 - ENEM 2025","index":79,"year":2025,"slug":"79","discipline":"ciencias-humanas","language":null,"skill":null,"image":null,"correctAlternative":"A","param_b":null},{"id":17652,"title":"Questão 80 - ENEM 2025","index":80,"year":2025,"slug":"80","discipline":"ciencias-humanas","language":null,"skill":null,"image":null,"correctAlternative":"C","param_b":null},{"id":17653,"title":"Questão 81 - ENEM 2025","index":81,"year":2025,"slug":"81","discipline":"ciencias-humanas","language":null,"skill":null,"image":null,"correctAlternative":"E","param_b":null},{"id":17654,"title":"Questão 82 - ENEM 2025","index":82,"year":2025,"slug":"82","discipline":"ciencias-humanas","language":null,"skill":null,"image":null,"correctAlternative":"E","param_b":null},{"id":17655,"title":"Questão 83 - ENEM 2025","index":83,"year":2025,"slug":"83","discipline":"ciencias-humanas","language":null,"skill":null,"image":null,"correctAlternative":"D","param_b":null},{"id":17656,"title":"Questão 84 - ENEM 2025","index":84,"year":2025,"slug":"84","discipline":"ciencias-humanas","language":null,"skill":null,"image":null,"correctAlternative":"D","param_b":null},{"id":17657,"title":"Questão 85 - ENEM 2025","index":85,"year":2025,"slug":"85","discipline":"ciencias-humanas","language":null,"skill":null,"image":null,"correctAlternative":"B","param_b":null},{"id":17658,"title":"Questão 86 - ENEM 2025","index":86,"year":2025,"slug":"86","discipline":"ciencias-humanas","language":null,"skill":null,"image":null,"correctAlternative":"C","param_b":null},{"id":17659,"title":"Questão 87 - ENEM 2025","index":87,"year":2025,"slug":"87","discipline":"ciencias-humanas","language":null,"skill":null,"image":null,"correctAlternative":"B","param_b":null},{"id":17660,"title":"Questão 88 - ENEM 2025","index":88,"year":2025,"slug":"88","discipline":"ciencias-humanas","language":null,"skill":null,"image":null,"correctAlternative":"C","param_b":null},{"id":17661,"title":"Questão 89 - ENEM 2025","index":89,"year":2025,"slug":"89","discipline":"ciencias-humanas","language":null,"skill":null,"image":null,"correctAlternative":"E","param_b":null},{"id":17663,"title":"Questão 90 - ENEM 2025","index":90,"year":2025,"slug":"90","discipline":"ciencias-humanas","language":null,"skill":null,"image":null,"correctAlternative":"A","param_b":null},{"id":17664,"title":"Questão 91 - ENEM 2025","index":91,"year":2025,"slug":"91","discipline":"ciencias-natureza","language":null,"skill":null,"image":"https://api.questoes.xtri.online/media/enem/2025/questions/91/question-91.png","correctAlternative":"D","param_b":null},{"id":17665,"title":"Questão 92 - ENEM 2025","index":92,"year":2025,"slug":"92","discipline":"ciencias-natureza","language":null,"skill":null,"image":null,"correctAlternative":"D","param_b":null},{"id":17666,"title":"Questão 93 - ENEM 2025","index":93,"year":2025,"slug":"93","discipline":"ciencias-natureza","language":null,"skill":null,"image":null,"correctAlternative":"C","param_b":null},{"id":17667,"title":"Questão 94 - ENEM 2025","index":94,"year":2025,"slug":"94","discipline":"ciencias-natureza","language":null,"skill":null,"image":"https://api.questoes.xtri.online/media/enem/2025/questions/94/question-94.png","correctAlternative":"D","param_b":null},{"id":17668,"title":"Questão 95 - ENEM 2025","index":95,"year":2025,"slug":"95","discipline":"ciencias-natureza","language":null,"skill":null,"image":null,"correctAlternative":"C","param_b":null}]}
