{"count":182,"next":"https://api.questoes.xtri.online/api/exams/2025/questions/?page=4","previous":"https://api.questoes.xtri.online/api/exams/2025/questions/?page=2","results":[{"id":17669,"title":"Questão 96 - ENEM 2025","index":96,"year":2025,"slug":"96","discipline":"ciencias-natureza","language":null,"skill":null,"image":null,"correctAlternative":"B","param_b":null},{"id":17670,"title":"Questão 97 - ENEM 2025","index":97,"year":2025,"slug":"97","discipline":"ciencias-natureza","language":null,"skill":null,"image":"https://api.questoes.xtri.online/media/enem/2025/questions/97/question-97.png","correctAlternative":"D","param_b":null},{"id":17671,"title":"Questão 98 - ENEM 2025","index":98,"year":2025,"slug":"98","discipline":"ciencias-natureza","language":null,"skill":null,"image":null,"correctAlternative":"D","param_b":null},{"id":17672,"title":"Questão 99 - ENEM 2025","index":99,"year":2025,"slug":"99","discipline":"ciencias-natureza","language":null,"skill":null,"image":null,"correctAlternative":"C","param_b":null},{"id":17491,"title":"Questão 100 - ENEM 2025","index":100,"year":2025,"slug":"100","discipline":"ciencias-natureza","language":null,"skill":null,"image":null,"correctAlternative":"D","param_b":null},{"id":17492,"title":"Questão 101 - ENEM 2025","index":101,"year":2025,"slug":"101","discipline":"ciencias-natureza","language":null,"skill":null,"image":null,"correctAlternative":"A","param_b":null},{"id":17493,"title":"Questão 102 - ENEM 2025","index":102,"year":2025,"slug":"102","discipline":"ciencias-natureza","language":null,"skill":null,"image":null,"correctAlternative":"E","param_b":null},{"id":17494,"title":"Questão 103 - ENEM 2025","index":103,"year":2025,"slug":"103","discipline":"ciencias-natureza","language":null,"skill":null,"image":null,"correctAlternative":"A","param_b":null},{"id":17495,"title":"Questão 104 - ENEM 2025","index":104,"year":2025,"slug":"104","discipline":"ciencias-natureza","language":null,"skill":null,"image":null,"correctAlternative":"A","param_b":null},{"id":17496,"title":"Questão 105 - ENEM 2025","index":105,"year":2025,"slug":"105","discipline":"ciencias-natureza","language":null,"skill":null,"image":"https://api.questoes.xtri.online/media/enem/2025/questions/105/question-105.png","correctAlternative":"E","param_b":null},{"id":17497,"title":"Questão 106 - ENEM 2025","index":106,"year":2025,"slug":"106","discipline":"ciencias-natureza","language":null,"skill":null,"image":"https://api.questoes.xtri.online/media/enem/2025/questions/106/question-106.png","correctAlternative":"A","param_b":null},{"id":17498,"title":"Questão 107 - ENEM 2025","index":107,"year":2025,"slug":"107","discipline":"ciencias-natureza","language":null,"skill":null,"image":"https://api.questoes.xtri.online/media/enem/2025/questions/107/question-107_6Y9ZzSd.png","correctAlternative":"E","param_b":null},{"id":17499,"title":"Questão 108 - ENEM 2025","index":108,"year":2025,"slug":"108","discipline":"ciencias-natureza","language":null,"skill":null,"image":null,"correctAlternative":"C","param_b":null},{"id":17500,"title":"Questão 109 - ENEM 2025","index":109,"year":2025,"slug":"109","discipline":"ciencias-natureza","language":null,"skill":null,"image":"https://api.questoes.xtri.online/media/enem/2025/questions/109/question-109.png","correctAlternative":"E","param_b":null},{"id":17502,"title":"Questão 110 - ENEM 2025","index":110,"year":2025,"slug":"110","discipline":"ciencias-natureza","language":null,"skill":null,"image":null,"correctAlternative":"E","param_b":null},{"id":17503,"title":"Questão 111 - ENEM 2025","index":111,"year":2025,"slug":"111","discipline":"ciencias-natureza","language":null,"skill":null,"image":"https://api.questoes.xtri.online/media/enem/2025/questions/111/question-111.png","correctAlternative":"B","param_b":null},{"id":17504,"title":"Questão 112 - ENEM 2025","index":112,"year":2025,"slug":"112","discipline":"ciencias-natureza","language":null,"skill":null,"image":null,"correctAlternative":"D","param_b":null},{"id":17505,"title":"Questão 113 - ENEM 2025","index":113,"year":2025,"slug":"113","discipline":"ciencias-natureza","language":null,"skill":null,"image":"https://api.questoes.xtri.online/media/enem/2025/questions/113/question-113.png","correctAlternative":"B","param_b":null},{"id":17506,"title":"Questão 114 - ENEM 2025","index":114,"year":2025,"slug":"114","discipline":"ciencias-natureza","language":null,"skill":null,"image":"https://api.questoes.xtri.online/media/enem/2025/questions/114/question-114.png","correctAlternative":"B","param_b":null},{"id":17507,"title":"Questão 115 - ENEM 2025","index":115,"year":2025,"slug":"115","discipline":"ciencias-natureza","language":null,"skill":null,"image":"https://api.questoes.xtri.online/media/enem/2025/questions/115/question-115.png","correctAlternative":"C","param_b":null},{"id":17508,"title":"Questão 116 - ENEM 2025","index":116,"year":2025,"slug":"116","discipline":"ciencias-natureza","language":null,"skill":null,"image":null,"correctAlternative":"C","param_b":null},{"id":17509,"title":"Questão 117 - ENEM 2025","index":117,"year":2025,"slug":"117","discipline":"ciencias-natureza","language":null,"skill":null,"image":null,"correctAlternative":"D","param_b":null},{"id":17510,"title":"Questão 118 - ENEM 2025","index":118,"year":2025,"slug":"118","discipline":"ciencias-natureza","language":null,"skill":null,"image":null,"correctAlternative":"C","param_b":null},{"id":17511,"title":"Questão 119 - ENEM 2025","index":119,"year":2025,"slug":"119","discipline":"ciencias-natureza","language":null,"skill":null,"image":"https://api.questoes.xtri.online/media/enem/2025/questions/119/question-119.png","correctAlternative":"B","param_b":null},{"id":17513,"title":"Questão 120 - ENEM 2025","index":120,"year":2025,"slug":"120","discipline":"ciencias-natureza","language":null,"skill":null,"image":"https://api.questoes.xtri.online/media/enem/2025/questions/120/question-120.png","correctAlternative":"B","param_b":null},{"id":17514,"title":"Questão 121 - ENEM 2025","index":121,"year":2025,"slug":"121","discipline":"ciencias-natureza","language":null,"skill":null,"image":null,"correctAlternative":"B","param_b":null},{"id":17515,"title":"Questão 122 - ENEM 2025","index":122,"year":2025,"slug":"122","discipline":"ciencias-natureza","language":null,"skill":null,"image":"https://api.questoes.xtri.online/media/enem/2025/questions/122/question-122.png","correctAlternative":"D","param_b":null},{"id":17517,"title":"Questão 124 - ENEM 2025","index":124,"year":2025,"slug":"124","discipline":"ciencias-natureza","language":null,"skill":null,"image":null,"correctAlternative":"B","param_b":null},{"id":17518,"title":"Questão 125 - ENEM 2025","index":125,"year":2025,"slug":"125","discipline":"ciencias-natureza","language":null,"skill":null,"image":null,"correctAlternative":"B","param_b":null},{"id":17519,"title":"Questão 126 - ENEM 2025","index":126,"year":2025,"slug":"126","discipline":"ciencias-natureza","language":null,"skill":null,"image":"https://api.questoes.xtri.online/media/enem/2025/questions/126/question-126.png","correctAlternative":"D","param_b":null},{"id":17520,"title":"Questão 127 - ENEM 2025","index":127,"year":2025,"slug":"127","discipline":"ciencias-natureza","language":null,"skill":null,"image":"https://api.questoes.xtri.online/media/enem/2025/questions/127/question-127.png","correctAlternative":"C","param_b":null},{"id":17521,"title":"Questão 128 - ENEM 2025","index":128,"year":2025,"slug":"128","discipline":"ciencias-natureza","language":null,"skill":null,"image":"https://api.questoes.xtri.online/media/enem/2025/questions/128/question-128.png","correctAlternative":"E","param_b":null},{"id":17522,"title":"Questão 129 - ENEM 2025","index":129,"year":2025,"slug":"129","discipline":"ciencias-natureza","language":null,"skill":null,"image":null,"correctAlternative":"A","param_b":null},{"id":17524,"title":"Questão 130 - ENEM 2025","index":130,"year":2025,"slug":"130","discipline":"ciencias-natureza","language":null,"skill":null,"image":null,"correctAlternative":"E","param_b":null},{"id":17525,"title":"Questão 131 - ENEM 2025","index":131,"year":2025,"slug":"131","discipline":"ciencias-natureza","language":null,"skill":null,"image":null,"correctAlternative":"E","param_b":null},{"id":17527,"title":"Questão 133 - ENEM 2025","index":133,"year":2025,"slug":"133","discipline":"ciencias-natureza","language":null,"skill":null,"image":"https://api.questoes.xtri.online/media/enem/2025/questions/133/question-133.png","correctAlternative":"A","param_b":null},{"id":17528,"title":"Questão 134 - ENEM 2025","index":134,"year":2025,"slug":"134","discipline":"ciencias-natureza","language":null,"skill":null,"image":"https://api.questoes.xtri.online/media/enem/2025/questions/134/question-134.png","correctAlternative":"B","param_b":null},{"id":17529,"title":"Questão 135 - ENEM 2025","index":135,"year":2025,"slug":"135","discipline":"ciencias-natureza","language":null,"skill":null,"image":"https://api.questoes.xtri.online/media/enem/2025/questions/135/question-135.png","correctAlternative":"A","param_b":null},{"id":17530,"title":"Questão 136 - ENEM 2025","index":136,"year":2025,"slug":"136","discipline":"matematica","language":null,"skill":null,"image":null,"correctAlternative":"C","param_b":null},{"id":17531,"title":"Questão 137 - ENEM 2025","index":137,"year":2025,"slug":"137","discipline":"matematica","language":null,"skill":null,"image":"https://api.questoes.xtri.online/media/enem/2025/questions/137/question-137.png","correctAlternative":"B","param_b":null},{"id":17532,"title":"Questão 138 - ENEM 2025","index":138,"year":2025,"slug":"138","discipline":"matematica","language":null,"skill":null,"image":"https://api.questoes.xtri.online/media/enem/2025/questions/138/question-138.png","correctAlternative":"E","param_b":null},{"id":17533,"title":"Questão 139 - ENEM 2025","index":139,"year":2025,"slug":"139","discipline":"matematica","language":null,"skill":null,"image":"https://api.questoes.xtri.online/media/enem/2025/questions/139/question-139.png","correctAlternative":"C","param_b":null},{"id":17535,"title":"Questão 140 - ENEM 2025","index":140,"year":2025,"slug":"140","discipline":"matematica","language":null,"skill":null,"image":null,"correctAlternative":"E","param_b":null},{"id":17536,"title":"Questão 141 - ENEM 2025","index":141,"year":2025,"slug":"141","discipline":"matematica","language":null,"skill":null,"image":null,"correctAlternative":"C","param_b":null},{"id":17537,"title":"Questão 142 - ENEM 2025","index":142,"year":2025,"slug":"142","discipline":"matematica","language":null,"skill":null,"image":null,"correctAlternative":"C","param_b":null},{"id":17538,"title":"Questão 143 - ENEM 2025","index":143,"year":2025,"slug":"143","discipline":"matematica","language":null,"skill":null,"image":"https://api.questoes.xtri.online/media/enem/2025/questions/143/question-143.png","correctAlternative":"A","param_b":null},{"id":17539,"title":"Questão 144 - ENEM 2025","index":144,"year":2025,"slug":"144","discipline":"matematica","language":null,"skill":null,"image":null,"correctAlternative":"D","param_b":null},{"id":17540,"title":"Questão 145 - ENEM 2025","index":145,"year":2025,"slug":"145","discipline":"matematica","language":null,"skill":null,"image":"https://api.questoes.xtri.online/media/enem/2025/questions/145/question-145.png","correctAlternative":"D","param_b":null},{"id":17541,"title":"Questão 146 - ENEM 2025","index":146,"year":2025,"slug":"146","discipline":"matematica","language":null,"skill":null,"image":null,"correctAlternative":"B","param_b":null},{"id":17542,"title":"Questão 147 - ENEM 2025","index":147,"year":2025,"slug":"147","discipline":"matematica","language":null,"skill":null,"image":"https://api.questoes.xtri.online/media/enem/2025/questions/147/question-147.png","correctAlternative":"E","param_b":null}]}
