{"count":182,"next":"https://api.questoes.xtri.online/api/exams/2025/questions/?page=2","previous":null,"results":[{"id":17488,"title":"Questão 1 - ENEM 2025","index":1,"year":2025,"slug":"1-espanhol","discipline":"linguagens","language":"espanhol","skill":null,"image":null,"correctAlternative":"D","param_b":null},{"id":17489,"title":"Questão 1 - ENEM 2025","index":1,"year":2025,"slug":"1-ingles","discipline":"linguagens","language":"ingles","skill":null,"image":null,"correctAlternative":"D","param_b":null},{"id":17581,"title":"Questão 2 - ENEM 2025","index":2,"year":2025,"slug":"2-espanhol","discipline":"linguagens","language":"espanhol","skill":null,"image":null,"correctAlternative":"D","param_b":null},{"id":17582,"title":"Questão 2 - ENEM 2025","index":2,"year":2025,"slug":"2-ingles","discipline":"linguagens","language":"ingles","skill":null,"image":null,"correctAlternative":"D","param_b":null},{"id":17593,"title":"Questão 3 - ENEM 2025","index":3,"year":2025,"slug":"3-espanhol","discipline":"linguagens","language":"espanhol","skill":null,"image":null,"correctAlternative":"D","param_b":null},{"id":17594,"title":"Questão 3 - ENEM 2025","index":3,"year":2025,"slug":"3-ingles","discipline":"linguagens","language":"ingles","skill":null,"image":null,"correctAlternative":"D","param_b":null},{"id":17605,"title":"Questão 4 - ENEM 2025","index":4,"year":2025,"slug":"4-espanhol","discipline":"linguagens","language":"espanhol","skill":null,"image":"https://api.questoes.xtri.online/media/enem/2025/questions/4-espanhol/question-4.png","correctAlternative":"E","param_b":null},{"id":17606,"title":"Questão 4 - ENEM 2025","index":4,"year":2025,"slug":"4-ingles","discipline":"linguagens","language":"ingles","skill":null,"image":null,"correctAlternative":"E","param_b":null},{"id":17617,"title":"Questão 5 - ENEM 2025","index":5,"year":2025,"slug":"5-espanhol","discipline":"linguagens","language":"espanhol","skill":null,"image":null,"correctAlternative":"A","param_b":null},{"id":17618,"title":"Questão 5 - ENEM 2025","index":5,"year":2025,"slug":"5-ingles","discipline":"linguagens","language":"ingles","skill":null,"image":"https://api.questoes.xtri.online/media/enem/2025/questions/5-ingles/question-5.png","correctAlternative":"A","param_b":null},{"id":17629,"title":"Questão 6 - ENEM 2025","index":6,"year":2025,"slug":"6","discipline":"linguagens","language":null,"skill":null,"image":null,"correctAlternative":"E","param_b":null},{"id":17640,"title":"Questão 7 - ENEM 2025","index":7,"year":2025,"slug":"7","discipline":"linguagens","language":null,"skill":null,"image":null,"correctAlternative":"C","param_b":null},{"id":17651,"title":"Questão 8 - ENEM 2025","index":8,"year":2025,"slug":"8","discipline":"linguagens","language":null,"skill":null,"image":null,"correctAlternative":"D","param_b":null},{"id":17662,"title":"Questão 9 - ENEM 2025","index":9,"year":2025,"slug":"9","discipline":"linguagens","language":null,"skill":null,"image":null,"correctAlternative":"C","param_b":null},{"id":17490,"title":"Questão 10 - ENEM 2025","index":10,"year":2025,"slug":"10","discipline":"linguagens","language":null,"skill":null,"image":null,"correctAlternative":"E","param_b":null},{"id":17501,"title":"Questão 11 - ENEM 2025","index":11,"year":2025,"slug":"11","discipline":"linguagens","language":null,"skill":null,"image":null,"correctAlternative":"B","param_b":null},{"id":17512,"title":"Questão 12 - ENEM 2025","index":12,"year":2025,"slug":"12","discipline":"linguagens","language":null,"skill":null,"image":null,"correctAlternative":"C","param_b":null},{"id":17523,"title":"Questão 13 - ENEM 2025","index":13,"year":2025,"slug":"13","discipline":"linguagens","language":null,"skill":null,"image":null,"correctAlternative":"E","param_b":null},{"id":17534,"title":"Questão 14 - ENEM 2025","index":14,"year":2025,"slug":"14","discipline":"linguagens","language":null,"skill":null,"image":"https://api.questoes.xtri.online/media/enem/2025/questions/14/question-14.png","correctAlternative":"C","param_b":null},{"id":17545,"title":"Questão 15 - ENEM 2025","index":15,"year":2025,"slug":"15","discipline":"linguagens","language":null,"skill":null,"image":"https://api.questoes.xtri.online/media/enem/2025/questions/15/question-15.png","correctAlternative":"A","param_b":null},{"id":17556,"title":"Questão 16 - ENEM 2025","index":16,"year":2025,"slug":"16","discipline":"linguagens","language":null,"skill":null,"image":null,"correctAlternative":"E","param_b":null},{"id":17567,"title":"Questão 17 - ENEM 2025","index":17,"year":2025,"slug":"17","discipline":"linguagens","language":null,"skill":null,"image":null,"correctAlternative":"C","param_b":null},{"id":17578,"title":"Questão 18 - ENEM 2025","index":18,"year":2025,"slug":"18","discipline":"linguagens","language":null,"skill":null,"image":null,"correctAlternative":"A","param_b":null},{"id":17580,"title":"Questão 19 - ENEM 2025","index":19,"year":2025,"slug":"19","discipline":"linguagens","language":null,"skill":null,"image":null,"correctAlternative":"E","param_b":null},{"id":17583,"title":"Questão 20 - ENEM 2025","index":20,"year":2025,"slug":"20","discipline":"linguagens","language":null,"skill":null,"image":null,"correctAlternative":"B","param_b":null},{"id":17584,"title":"Questão 21 - ENEM 2025","index":21,"year":2025,"slug":"21","discipline":"linguagens","language":null,"skill":null,"image":null,"correctAlternative":"C","param_b":null},{"id":17585,"title":"Questão 22 - ENEM 2025","index":22,"year":2025,"slug":"22","discipline":"linguagens","language":null,"skill":null,"image":"https://api.questoes.xtri.online/media/enem/2025/questions/22/question-22.png","correctAlternative":"B","param_b":null},{"id":17586,"title":"Questão 23 - ENEM 2025","index":23,"year":2025,"slug":"23","discipline":"linguagens","language":null,"skill":null,"image":"https://api.questoes.xtri.online/media/enem/2025/questions/23/question-23.png","correctAlternative":"C","param_b":null},{"id":17587,"title":"Questão 24 - ENEM 2025","index":24,"year":2025,"slug":"24","discipline":"linguagens","language":null,"skill":null,"image":"https://api.questoes.xtri.online/media/enem/2025/questions/24/question-24.png","correctAlternative":"B","param_b":null},{"id":17588,"title":"Questão 25 - ENEM 2025","index":25,"year":2025,"slug":"25","discipline":"linguagens","language":null,"skill":null,"image":null,"correctAlternative":"E","param_b":null},{"id":17589,"title":"Questão 26 - ENEM 2025","index":26,"year":2025,"slug":"26","discipline":"linguagens","language":null,"skill":null,"image":"https://api.questoes.xtri.online/media/enem/2025/questions/26/question-26.png","correctAlternative":"B","param_b":null},{"id":17590,"title":"Questão 27 - ENEM 2025","index":27,"year":2025,"slug":"27","discipline":"linguagens","language":null,"skill":null,"image":null,"correctAlternative":"A","param_b":null},{"id":17591,"title":"Questão 28 - ENEM 2025","index":28,"year":2025,"slug":"28","discipline":"linguagens","language":null,"skill":null,"image":null,"correctAlternative":"B","param_b":null},{"id":17592,"title":"Questão 29 - ENEM 2025","index":29,"year":2025,"slug":"29","discipline":"linguagens","language":null,"skill":null,"image":null,"correctAlternative":"A","param_b":null},{"id":17595,"title":"Questão 30 - ENEM 2025","index":30,"year":2025,"slug":"30","discipline":"linguagens","language":null,"skill":null,"image":null,"correctAlternative":"B","param_b":null},{"id":17596,"title":"Questão 31 - ENEM 2025","index":31,"year":2025,"slug":"31","discipline":"linguagens","language":null,"skill":null,"image":"https://api.questoes.xtri.online/media/enem/2025/questions/31/question-31.png","correctAlternative":"D","param_b":null},{"id":17597,"title":"Questão 32 - ENEM 2025","index":32,"year":2025,"slug":"32","discipline":"linguagens","language":null,"skill":null,"image":null,"correctAlternative":"E","param_b":null},{"id":17598,"title":"Questão 33 - ENEM 2025","index":33,"year":2025,"slug":"33","discipline":"linguagens","language":null,"skill":null,"image":"https://api.questoes.xtri.online/media/enem/2025/questions/33/question-33.png","correctAlternative":"B","param_b":null},{"id":17599,"title":"Questão 34 - ENEM 2025","index":34,"year":2025,"slug":"34","discipline":"linguagens","language":null,"skill":null,"image":"https://api.questoes.xtri.online/media/enem/2025/questions/34/question-34.png","correctAlternative":"C","param_b":null},{"id":17600,"title":"Questão 35 - ENEM 2025","index":35,"year":2025,"slug":"35","discipline":"linguagens","language":null,"skill":null,"image":null,"correctAlternative":"E","param_b":null},{"id":17601,"title":"Questão 36 - ENEM 2025","index":36,"year":2025,"slug":"36","discipline":"linguagens","language":null,"skill":null,"image":null,"correctAlternative":"D","param_b":null},{"id":17602,"title":"Questão 37 - ENEM 2025","index":37,"year":2025,"slug":"37","discipline":"linguagens","language":null,"skill":null,"image":null,"correctAlternative":"A","param_b":null},{"id":17603,"title":"Questão 38 - ENEM 2025","index":38,"year":2025,"slug":"38","discipline":"linguagens","language":null,"skill":null,"image":null,"correctAlternative":"B","param_b":null},{"id":17604,"title":"Questão 39 - ENEM 2025","index":39,"year":2025,"slug":"39","discipline":"linguagens","language":null,"skill":null,"image":null,"correctAlternative":"C","param_b":null},{"id":17607,"title":"Questão 40 - ENEM 2025","index":40,"year":2025,"slug":"40","discipline":"linguagens","language":null,"skill":null,"image":null,"correctAlternative":"A","param_b":null},{"id":17608,"title":"Questão 41 - ENEM 2025","index":41,"year":2025,"slug":"41","discipline":"linguagens","language":null,"skill":null,"image":"https://api.questoes.xtri.online/media/enem/2025/questions/41/question-41.png","correctAlternative":"B","param_b":null},{"id":17609,"title":"Questão 42 - ENEM 2025","index":42,"year":2025,"slug":"42","discipline":"linguagens","language":null,"skill":null,"image":null,"correctAlternative":"A","param_b":null},{"id":17610,"title":"Questão 43 - ENEM 2025","index":43,"year":2025,"slug":"43","discipline":"linguagens","language":null,"skill":null,"image":null,"correctAlternative":"D","param_b":null},{"id":17611,"title":"Questão 44 - ENEM 2025","index":44,"year":2025,"slug":"44","discipline":"linguagens","language":null,"skill":null,"image":null,"correctAlternative":"D","param_b":null},{"id":17612,"title":"Questão 45 - ENEM 2025","index":45,"year":2025,"slug":"45","discipline":"linguagens","language":null,"skill":null,"image":"https://api.questoes.xtri.online/media/enem/2025/questions/45/question-45.png","correctAlternative":"C","param_b":null}]}
